		if(month==11) {
				month=0;
				year++;
				String date=year+":"+0+":"+1;
				SimpleDateFormat str= new SimpleDateFormat("yyyy:MM:dd");
				Date date3= (Date) str.parse(date);
			 map2=callingLeapYearMonths(date3); 
			}
			else {
			month++;
			}	j--;
			
			